{
    "filter": {
        "AVAILABLE": "true"
    },
    "__index": "zcwj-index-200424",
    "__type": "zcfg",
    "pageable": {},
    "queryFilter": {
        "filter": {
            "AVAILABLE": "true"
        },
        "fieldAndValues": null
    },
    "hasFilter": true,
    "page": {
        "content":[
            {
                "AttachPic": 0,
                "GJC": "",
                "WZFL": "1926",
                "FZYJ": "",
                "ZCJD": "",
                "OriginMetaDataId": 5714264,
                "ChannelId": 63743,
                "AttachVideo": 0,
                "highlight": {},
                "BT": "市金融局关于同意天津恒汇小额贷款有限公司增加注册资本的批复",
                "DOCPUBURL": "http://jrgz.tj.gov.cn/zwgk/jrzc_1/jrjzc/202111/t20211120_5714264.html",
                "WCMMetaTableGovZhengCeWenJianID": 206804,
                "MetaDataId": 5714264,
                "XGBD": "",
                "YXX": "0",
                "FBRQ": "2021-11-19T00:00:00.000+0800",
                "IDXID": "11120000MB1671711Y/2021-00159",
                "FWZH": "津金审批〔2021〕153号",
                "WZFL_name": "津金审批",
                "LHFWDW": "",
                "ZTFL": "1305",
                "CWRQ": "2021-11-19T00:00:00.000+0800",
                "ZTFL_name": "地方金融发展",
                "AVAILABLE": true,
                "VersionNum": 0,
                "OrganCat": "1351",
                "JB": "1",
                "CrUser": "zhangyu_dfjr",
                "DXFL": "0,1",
                "DocRelTime": "2021-11-20T00:00:00.000+0800",
                "trs_warehouse_time": "2021-11-21T00:42:23.605Z",
                "_id": "5714264",
                "ThumbFiles": "",
                "FWJG_name": "天津市地方金融监督管理局",
                "ZW": "天津恒汇小额贷款有限公司： 你公司申请增加注册资本相关材料收悉。根据《天津市小额贷款公司监督管理暂行办法》（津金融局〔2016〕75号）有关规定，经审核，批复如下： 同意你公司将注册资本由10000万元增至12500万元。增资后，你公司股权结构为：天津恒浩建筑工程有限公司出资7500万元，占比60%；天津市今日家园装饰有限公司出资3500万元，占比28%；天津浚沣园林绿化有限公司出资1500万元，占比12%。 此复。",
                "CrTime": "2021-11-20T15:05:47.000Z"
            },
            {
                "AttachPic": 0,
                "GJC": "",
                "WZFL": "1635",
                "FZYJ": "",
                "ZCJD": "",
                "OriginMetaDataId": 5713235,
                "ChannelId": 99848,
                "AttachVideo": 0,
                "highlight": {},
                "BT": "市人社局关于加快推进中央驻津机关事业单位养老保险清算工作的通知",
                "DOCPUBURL": "http://hrss.tj.gov.cn/zhengwugongkai/zhengcezhinan/zxwjnew/202111/t20211119_5713235.html",
                "WCMMetaTableGovZhengCeWenJianID": 206730,
                "MetaDataId": 5713235,
                "XGBD": "",
                "YXX": "0",
                "FBRQ": "2021-11-19T00:00:00.000+0800",
                "IDXID": "1112000000012568X5/2021-00564",
                "FWZH": "津人社局函〔2021〕46号",
                "WZFL_name": "津人社局函",
                "LHFWDW": "",
                "ZTFL": "1187",
                "CWRQ": "2021-11-18T00:00:00.000+0800",
                "ZTFL_name": "社会保障",
                "AVAILABLE": true,
                "VersionNum": 0,
                "OrganCat": "1329",
                "JB": "1",
                "CrUser": "rsj_yaonaijia",
                "DXFL": "0,1",
                "DocRelTime": "2021-11-19T00:00:00.000+0800",
                "trs_warehouse_time": "2021-11-19T08:36:23.952Z",
                "_id": "5713235",
                "ThumbFiles": "",
                "FWJG_name": "天津市人力资源和社会保障局",
                "ZW": "市人社局关于加快推进中央驻津机关事业单位 养老保险清算工作的通知   各中央驻津机关事业单位财务、人事部门： 为加快推进中央驻津机关事业单位基本养老保险和职业年金清算工作，按照《财政部人力资源社会保障部关于中央国家机关所属京外单位养老保险制度改革实施准备期清算和全面完成属地参保工作的通知》（财社〔2019〕168号）和《财政部人力资源社会保障部关于做好中央国家机关所属京外单位属地参保中央财政补助资金审核结算工作的通知》（财社〔2021〕64号）要求，现就有关问题通知如下： 一、请各中央驻津机关事业单位认真贯彻落实财政部、人力资源社会保障部两个文件要求，抓紧组织推动清算工作，做好数据核对，及时准确向社保经办机构申报准备期清算信息，于2021年底前完成清算工作，切实维护职工权益。 二、请各中央驻津机关事业单位积极筹措资金，资金到位后按照规定的期限和核定的金额，及时进行清算资金缴纳。为确保统筹基金在2021年底前将应支付差额部分退回单位，各单位须于11月24日（星期三）12时前完成清算资金缴纳。 三、因特殊原因11月24日无法完成清算资金缴纳的单位，应填写《中央驻津机关事业单位清算情况统计表》，列出明确清算时间计划，详细说明无法办理的原因，并于11月22日（星期一）下班前反馈参保区社保经办机构。   附件：中央驻津机关事业单位清算情况统计表                                                   2021年11月18日     （联系人：皇甫晨光；联系电话：13821381832）",
                "CrTime": "2021-11-19T02:13:40.000Z"
            },
            {
                "AttachPic": 0,
                "GJC": "",
                "WZFL": "1634",
                "FZYJ": "",
                "ZCJD": "25857",
                "OriginMetaDataId": 5713206,
                "ChannelId": 99848,
                "AttachVideo": 0,
                "highlight": {},
                "BT": "市人社局关于简化企业职工基本养老保险退休手续有关问题的通知",
                "DOCPUBURL": "http://hrss.tj.gov.cn/zhengwugongkai/zhengcezhinan/zxwjnew/202111/t20211119_5713206.html",
                "WCMMetaTableGovZhengCeWenJianID": 206727,
                "MetaDataId": 5713206,
                "XGBD": "",
                "YXX": "0",
                "FBRQ": "2021-11-19T00:00:00.000+0800",
                "IDXID": "1112000000012568X5/2021-00561",
                "FWZH": "津人社局发〔2021〕25号",
                "WZFL_name": "津人社局发",
                "LHFWDW": "",
                "ZTFL": "1187",
                "CWRQ": "2021-11-17T00:00:00.000+0800",
                "ZTFL_name": "社会保障",
                "AVAILABLE": true,
                "VersionNum": 0,
                "OrganCat": "1329",
                "JB": "1",
                "CrUser": "rsj_yaonaijia",
                "DXFL": "0,1",
                "DocRelTime": "2021-11-19T00:00:00.000+0800",
                "trs_warehouse_time": "2021-11-19T08:36:23.952Z",
                "_id": "5713206",
                "ThumbFiles": "",
                "FWJG_name": "天津市人力资源和社会保障局",
                "ZW": "市人社局关于简化企业职工基本养老保险 退休手续有关问题的通知 各区人力资源和社会保障局，有关单位： 为落实企业职工基本养老保险全国统筹要求，深入推进“放管服”改革，经研究，决定进一步简化企业职工基本养老保险退休手续（以下简称“退休手续”），现就有关事项通知如下： 一、取消退休手续中各区人社局的审批环节，由各区社会保险经办机构负责直接办理退休手续并计发基本养老金。 二、企业职工基本养老保险参保人员（以下简称“参保人员”）办理退休手续的范围、条件、待遇计发按国家和本市有关规定执行。 三、社会保险经办机构出具《企业职工基本养老保险信息核对单》及《企业职工基本养老保险信息核对单说明》（附件2，以下简称《信息核对单》），用于参保人员办理退休手续前，核对本人参保缴费信息。 四、参保人员可通过天津市人社局网上办事大厅、“天津人力社保”APP、社会保险经办机构等渠道获取《信息核对单》。其中，办理提前退休的参保人员，在相关部门审核通过提前退休之月获取；其他参保人员在达到法定退休年龄前12个月获取。参保人员对《信息核对单》记载的信息进行核实，存在异议的，可按《企业职工基本养老保险信息核对单说明》，到区人社局或社会保险经办机构申报修改。 五、用人单位或存档机构（以下简称“申报单位”）为参保人员申报办理退休手续，应在办理退休减员的同时，打印《天津市企业职工基本养老保险退休申报表》（附件3，以下简称《退休申报表》）并交给本人进行核对。参保人员对本人参保信息核对无误后，签字确认申请退休，申报单位在参保人员签字确认的《退休申报表》上签字并加盖印章后，将申报材料提交社会保险经办机构办理待遇核定支付。 六、社会保险经办机构依据申报单位提交的申报材料，核对社会保险信息系统中记录是否准确。核对无误的，现场办理退休手续，出具《天津市企业职工基本养老保险待遇核定表》（附件4），同时发放《天津市企业职工退休证》。申报单位及社会保险经办机构盖章留存《天津市企业职工基本养老保险待遇核定表》。 七、参保人员退休前被用人单位聘任为高级专业技术人员的，用人单位可在聘任后到各区人社局办理备案手续，也可待聘期内高级专业技术人员办理退休减员时，到社会保险经办机构为其增加相应标识。 八、申报单位为参保人员审定（更正）视同缴费年限，更正领取失业金记录、1995年底以前省部级以上劳模信息、安置到企业的军队转业干部信息的，应在退休前到区人社局办理。 九、已办理退休手续的人员，需要更正视同缴费年限或领取失业金记录、高级专业技术聘任信息、1995年底前省部级以上劳模信息、安置到企业的军队转业干部信息的，申报单位应到区人社局办理更正手续后重新打印《退休申报表》，经本人核对确认后，到社会保险经办机构重新办理待遇核定支付。 十、已办理退休手续的人员，需要按规定补缴企业职工基本养老保险费的，申报单位应到社会保险经办机构办理补缴手续后重新打印《退休申报表》，经参保人员核对确认后，到社会保险经办机构重新办理待遇核定支付。 十一、已办理退休手续的人员，按规定需撤销原退休手续的（含区人社局办理的退休审批手续、社会保险经办机构直接办理的退休手续），由社会保险经办机构办理。 十二、社会保险经办机构应结合实际，不断优化经办流程，加强与相关部门数据比对，尽快实现退休手续的相关业务自动办理，提升经办服务效能。 十三、各区人社局应与社会保险经办机构建立沟通协调机制，积极配合社会保险经办机构做好相关工作。对于特殊疑难问题，主动协助社会保险经办机构妥善解决。 本通知自2022年2月21日起执行。以前有关规定与本通知不一致的，以本通知为准。 附件：1．天津市企业职工基本养老保险退休手续办事指南 2．企业职工基本养老保险信息核对单 3．天津市企业职工基本养老保险退休申报表 4．天津市企业职工基本养老保险待遇核定表 5．代为确认参保信息承诺书 6．天津市城镇企业退休人员养老待遇发放信息申报（变更）表            2021年11月17日",
                "CrTime": "2021-11-19T02:01:57.000Z"
            },
            {
                "AttachPic": 0,
                "GJC": "",
                "WZFL": "1537",
                "FZYJ": "",
                "ZCJD": "",
                "OriginMetaDataId": 5713922,
                "ChannelId": 62041,
                "AttachVideo": 0,
                "highlight": {},
                "BT": "市科技局印发关于加强科技人才队伍建设支撑高质量发展的若干措施的通知",
                "DOCPUBURL": "http://kxjs.tj.gov.cn/managecol/ZCWJ0923/kjjzcwj09233/202111/t20211119_5713922.html",
                "WCMMetaTableGovZhengCeWenJianID": 206780,
                "MetaDataId": 5713922,
                "XGBD": "",
                "YXX": "0",
                "FBRQ": "2021-11-19T00:00:00.000+0800",
                "IDXID": "11120000MB19568805/2021-00105",
                "FWZH": "津科引智〔2021〕123号",
                "WZFL_name": "津科引智",
                "LHFWDW": "",
                "ZTFL": "1145",
                "CWRQ": "2021-11-19T00:00:00.000+0800",
                "ZTFL_name": "科技",
                "AVAILABLE": true,
                "VersionNum": 0,
                "OrganCat": "1322",
                "JB": "1",
                "CrUser": "skjj_xueyuning",
                "DXFL": "0,1",
                "DocRelTime": "2021-11-19T00:00:00.000+0800",
                "trs_warehouse_time": "2021-11-19T09:03:11.143Z",
                "_id": "5713922",
                "ThumbFiles": "",
                "FWJG_name": "天津市科学技术局",
                "ZW": "各区科技局、各有关单位： 为深入贯彻落实习近平总书记在中央人才工作会议上的重要讲话精神，按照市委常委会部署要求，市科技局研究制定了《关于加强科技人才队伍建设支撑高质量发展的若干措施》，现印发给你们，请结合实际认真贯彻落实。 2021年11月17日 （此件主动公开）",
                "CrTime": "2021-11-19T09:01:48.000Z"
            },
            {
                "AttachPic": 0,
                "GJC": "",
                "WZFL": "1926",
                "FZYJ": "",
                "ZCJD": "",
                "OriginMetaDataId": 5714263,
                "ChannelId": 63743,
                "AttachVideo": 0,
                "highlight": {},
                "BT": "市金融局关于同意保利商业保理有限公司变更股权结构的批复",
                "DOCPUBURL": "http://jrgz.tj.gov.cn/zwgk/jrzc_1/jrjzc/202111/t20211120_5714263.html",
                "WCMMetaTableGovZhengCeWenJianID": 206803,
                "MetaDataId": 5714263,
                "XGBD": "",
                "YXX": "0",
                "FBRQ": "2021-11-18T00:00:00.000+0800",
                "IDXID": "11120000MB1671711Y/2021-00158",
                "FWZH": "津金审批〔2021〕152号",
                "WZFL_name": "津金审批",
                "LHFWDW": "",
                "ZTFL": "1305",
                "CWRQ": "2021-11-18T00:00:00.000+0800",
                "ZTFL_name": "地方金融发展",
                "AVAILABLE": true,
                "VersionNum": 0,
                "OrganCat": "1351",
                "JB": "1",
                "CrUser": "zhangyu_dfjr",
                "DXFL": "0,1",
                "DocRelTime": "2021-11-20T00:00:00.000+0800",
                "trs_warehouse_time": "2021-11-21T00:42:23.605Z",
                "_id": "5714263",
                "ThumbFiles": "",
                "FWJG_name": "天津市地方金融监督管理局",
                "ZW": "保利商业保理有限公司： 《经开区金融局关于同意保利商业保理有限公司变更股权结构的函》收悉。根据《中国银保监会办公厅关于加强商业保理企业监督管理的通知》（银保监办发〔2019〕205号）、《天津市商业保理试点管理办法（试行）》（津金监规范〔2019〕1号）、《市发展改革委关于抓紧向新区各开发区延伸市级权力事项的通知》等有关规定，批复如下： 一、同意保利融资租赁有限公司将持有你公司100%的股权转让给保利投资控股有限公司。 二、调整后，你公司股权结构为：保利投资控股有限公司出资10000万元，出资占比100%。 此复。",
                "CrTime": "2021-11-20T15:03:14.000Z"
            },
            {
                "AttachPic": 0,
                "GJC": "",
                "WZFL": "1632",
                "FZYJ": "",
                "ZCJD": "",
                "OriginMetaDataId": 5714046,
                "ChannelId": 60080,
                "AttachVideo": 0,
                "highlight": {},
                "BT": "天津市交通运输委员会关于印发天津市交通运输委员会突发事件综合应急预案的通知",
                "DOCPUBURL": "http://jtys.tj.gov.cn/ZWGK6002/ZCWJ_1/WZFWJ/202111/t20211119_5714046.html",
                "WCMMetaTableGovZhengCeWenJianID": 206793,
                "MetaDataId": 5714046,
                "XGBD": "",
                "YXX": "0",
                "FBRQ": "2021-11-17T00:00:00.000+0800",
                "IDXID": "1112000030045280XK/2021-00332",
                "FWZH": "津交发〔2021〕187号",
                "WZFL_name": "津交发",
                "LHFWDW": "",
                "ZTFL": "1230",
                "CWRQ": "2021-11-17T00:00:00.000+0800",
                "ZTFL_name": "综合交通",
                "AVAILABLE": true,
                "VersionNum": 0,
                "OrganCat": "1334",
                "JB": "1",
                "CrUser": "sunting_gk",
                "DXFL": "0,1",
                "DocRelTime": "2021-11-19T00:00:00.000+0800",
                "trs_warehouse_time": "2021-11-19T09:46:34.511Z",
                "_id": "5714046",
                "ThumbFiles": "",
                "FWJG_name": "天津市交通运输委员会",
                "ZW": "天津市交通运输委员会关于印发天津市交通 运输委员会突发事件综合应急预案的通知   机关各处室、委属各单位： 《天津市交通运输委员会突发事件综合应急预案》已经2021年第55次党委会审议通过。现印发给你们，请结合实际认真贯彻执行。   附件：1.市交通运输委各专项预案牵头组织编制部门、单位 2.应急领导小组主要成员单位职责 3.市交通运输委值班应急信息报送流程图 4.市交通运输委突发事件应急响应流程图      天津市交通运输委员会                                  2021年11月17日     （联系人：杨希林；联系电话：24539347）  ",
                "CrTime": "2021-11-19T09:41:59.000Z"
            },
            {
                "AttachPic": 0,
                "GJC": "",
                "WZFL": "1926",
                "FZYJ": "",
                "ZCJD": "",
                "OriginMetaDataId": 5711571,
                "ChannelId": 63743,
                "AttachVideo": 0,
                "highlight": {},
                "BT": "市金融局关于同意莫干山商业保理（天津）有限公司设立的批复",
                "DOCPUBURL": "http://jrgz.tj.gov.cn/zwgk/jrzc_1/jrjzc/202111/t20211117_5711571.html",
                "WCMMetaTableGovZhengCeWenJianID": 206489,
                "MetaDataId": 5711571,
                "XGBD": "",
                "YXX": "0",
                "FBRQ": "2021-11-17T00:00:00.000+0800",
                "IDXID": "11120000MB1671711Y/2021-00157",
                "FWZH": "津金审批〔2021〕151号",
                "WZFL_name": "津金审批",
                "LHFWDW": "",
                "ZTFL": "1305",
                "CWRQ": "2021-11-17T00:00:00.000+0800",
                "ZTFL_name": "地方金融发展",
                "AVAILABLE": true,
                "VersionNum": 0,
                "OrganCat": "1351",
                "JB": "1",
                "CrUser": "zhangyu_dfjr",
                "DXFL": "0,1",
                "DocRelTime": "2021-11-17T00:00:00.000+0800",
                "trs_warehouse_time": "2021-11-17T09:42:33.507Z",
                "_id": "5711571",
                "ThumbFiles": "",
                "FWJG_name": "天津市地方金融监督管理局",
                "ZW": "湖州莫干山高新产业投资发展有限公司： 《东疆金融局关于同意莫干山商业保理（天津）有限公司设立的函》收悉。根据《中国银保监会办公厅关于加强商业保理企业监督管理的通知》（银保监办发〔2019〕205号）、《天津市商业保理试点管理办法（试行）》（津金监规范〔2019〕1号）、《市发展改革委关于抓紧向新区各开发区延伸市级权力事项的通知》等有关规定，批复如下： 一、核准莫干山商业保理（天津）有限公司设立，公司注册资本20000万元人民币；住所天津自贸试验区（东疆保税港区）贺兰道以北、欧洲路以东恒盛广场4号楼-319-4。 二、核准湖州莫干山高新产业投资发展有限公司股东资格，出资20000万元人民币，出资占比100%。     三、核准莫干山商业保理（天津）有限公司经营范围为：保理融资；销售分户（分类）账管理；应收账款催收；非商业性坏账担保；客户资信调查与评估；与商业保理相关的咨询服务。     四、请你公司按照相关规定办理莫干山商业保理（天津）有限公司登记事宜，并自完成相关手续5个工作日内报备东疆保税港区金融局。 此复。",
                "CrTime": "2021-11-17T09:22:51.000Z"
            },
            {
                "AttachPic": 0,
                "GJC": "",
                "WZFL": "",
                "FZYJ": "",
                "ZCJD": "",
                "OriginMetaDataId": 5711574,
                "ChannelId": 99848,
                "AttachVideo": 0,
                "highlight": {},
                "BT": "市人社局市税务局市医保局关于暂停办理社会保险费相关业务的通告",
                "DOCPUBURL": "http://hrss.tj.gov.cn/zhengwugongkai/zhengcezhinan/zxwjnew/202111/t20211117_5711574.html",
                "WCMMetaTableGovZhengCeWenJianID": 206491,
                "MetaDataId": 5711574,
                "XGBD": "",
                "YXX": "0",
                "FBRQ": "2021-11-17T00:00:00.000+0800",
                "IDXID": "1112000000012568X5/2021-00559",
                "FWZH": "津人社办发〔2021〕80号",
                "LHFWDW": "",
                "ZTFL": "1187",
                "CWRQ": "2021-11-17T00:00:00.000+0800",
                "ZTFL_name": "社会保障",
                "AVAILABLE": true,
                "VersionNum": 0,
                "OrganCat": "1329",
                "JB": "1",
                "CrUser": "rsj_yaonaijia",
                "DXFL": "0,1",
                "DocRelTime": "2021-11-17T00:00:00.000+0800",
                "trs_warehouse_time": "2021-11-17T09:36:27.179Z",
                "_id": "5711574",
                "ThumbFiles": "",
                "FWJG_name": "天津市人力资源和社会保障局",
                "ZW": "市人社局市税务局市医保局关于暂停办理 社会保险费相关业务的通告   各区人力资源和社会保障局、税务局、医疗保障局，有关单位： 根据《市人社局市医保局市税务局关于2021年度社会保险缴费基数标准有关问题的通知》（津人社局发〔2021〕24号），为确保本年度社会保险费缴费基数调整工作顺利实施，天津市人力资源和社会保障局、国家税务总局天津市税务局将于2021年11月21日0时至11月22日24时期间对社会保险费相关信息系统进行停机升级。届时，将暂停办理部分社会保险费业务，现就有关事项通告如下： 一、人社部门暂停及恢复业务办理安排 用人单位及灵活就业人员的参保登记、缴费核定业务自2021年11月21日起暂停办理，自2021年11月23日起恢复办理。 二、税务部门暂停及恢复业务办理安排 用人单位及灵活就业人员的申报、缴费业务自2021年11月21日起暂停办理，自2021年11月23日起恢复办理。 城乡居民基本养老保险和城乡居民基本医疗保险的申报、缴费业务自2021年11月21日起暂停办理，自2021年11月22日起恢复办理。     三、医保部门相关待遇办理安排     拟补缴2021年度城乡居民基本医疗保险费的缴费人，需于2021年11月21日前完成缴费，以确保在相关信息系统停机升级期间按规定享受城乡居民医疗保险待遇。     特此通告。     市人社局          市税务局          市医保局 2021年11月17日  ",
                "CrTime": "2021-11-17T09:24:56.000Z"
            },
            {
                "AttachPic": 0,
                "GJC": "",
                "WZFL": "",
                "FZYJ": "",
                "ZCJD": "",
                "OriginMetaDataId": 5704119,
                "ChannelId": 61662,
                "AttachVideo": 0,
                "highlight": {},
                "BT": "关于印发贯彻落实《公平竞争审查制度实施细则》措施的通知",
                "DOCPUBURL": "http://scjg.tj.gov.cn/tjsscjdglwyh_52651/zwgk/zfgznew/bdwwjnew/sjwwj_1/202111/t20211116_5704119.html",
                "WCMMetaTableGovZhengCeWenJianID": 206154,
                "MetaDataId": 5704119,
                "XGBD": "",
                "YXX": "0",
                "FBRQ": "2021-11-16T00:00:00.000+0800",
                "IDXID": "11120000MB1671009Y/2021-00102",
                "FWZH": "津市场监管垄〔2021〕5号",
                "LHFWDW": "1389,1406,1397,1396",
                "ZTFL": "1119",
                "CWRQ": "2021-11-05T00:00:00.000+0800",
                "ZTFL_name": "政务公开",
                "AVAILABLE": true,
                "VersionNum": 0,
                "OrganCat": "1344",
                "JB": "1",
                "CrUser": "市市监委_尤成湖",
                "DXFL": "0,1",
                "DocRelTime": "2021-11-16T00:00:00.000+0800",
                "trs_warehouse_time": "2021-11-16T01:36:27.795Z",
                "_id": "5704119",
                "ThumbFiles": "",
                "FWJG_name": "天津市市场监督管理委员会",
                "ZW": "关于印发贯彻落实《公平竞争审查制度实施细则》措施的通知 津市场监管垄〔2021〕5号 各区人民政府，市政府各委、局及各直属单位：     为深入贯彻党中央、国务院关于全面落实公平竞争审查制度决策部署，落实《关于印发<公平竞争审查制度实施细则>的通知》（国市监反垄规〔2021〕2号），进一步提高我市公平竞争审查质量，强化公平竞争审查刚性约束，防止出台排除、限制竞争的政策措施，经市人民政府同意，现将有关事项通知如下。     一、加强组织领导，充分发挥统筹协调作用    （一）加强组织领导。市人民政府、各区人民政府负责健全本级公平竞争审查工作联席会议（以下简称“联席会议”）制度，统筹协调和监督指导本地区公平竞争审查工作，原则上由本级人民政府分管负责同志担任联席会议召集人。联席会议办公室设在市场监管部门，承担联席会议日常工作。    （二）强化统筹推动。各级联席会议要充分发挥协调指导和监督作用，加强横向协同、上下联动，统筹推动工作落实到位。各级联席会议应于每年11月30日前向本级人民政府和上一级联席会议报告本地区公平竞争审查制度实施情况，接受指导和监督。     二、明确工作任务，完善内部审查制度    （三）完善审查制度。全市行政机关和法律、法规授权的具有管理公共事务职能的组织（以下统称政策制定机关）要对照《公平竞争审查制度实施细则》（简称《实施细则》）规定要求，按照“谁制定、谁审查”的原则，健全完善本单位公平竞争审查内部工作制度，明确内部审查机构和程序。    （四）界定审查对象。政策制定机关制定的涉及市场准入和退出、产业发展、招商引资、招标投标、政府采购、经营行为规范、资质标准等有关市场主体经营活动的规章、规范性文件、其他政策性文件以及“一事一议”形式的具体政策措施（以下统称政策措施），均应纳入公平竞争审查范围。    （五）优化审查方式。政策制定机关可实施内部统一集中审查，或由内部业务机构初审后提交特定机构复核。要严格对照审查标准进行自我审查，认真执行意见征求流程，形成书面审查结论。政策制定机关要切实把公平竞争审查制度落实到每一项政策措施的起草和决策过程中，把公平竞争审查作为必经程序纳入本单位内部公文办理系统，实现全程留痕和可追溯管理。各区人民政府要切实履行审查职责，严格审查以政府或政府办名义出台的政策措施，坚决杜绝不审查、漏审查、不认真审查等问题。    （六）严格审查标准。政策制定机关要严格对照《实施细则》中市场准入和退出、商品和要素自由流动、影响生产经营成本、影响生产经营行为等四方面标准进行审查;没有法律、法规或国务院规定依据，不得减损市场主体合法权益或者增加其义务、不得设置不平等的市场准入退出条件、不得违法给予特定经营者优惠政策等，不得违反《中华人民共和国反垄断法》制定含有排除、限制竞争内容的政策措施，切实维护全国统一大市场;要严格把握适用例外规定的具体情形和条件，强化监督评估要求，严禁滥用例外规定;拟适用例外规定的，要引入公平竞争审查第三方评估;要定期评估已出台涉及市场主体经济活动的政策措施，或者在定期清理规章和规范性文件时一并进行，及时发现和纠正实际运行中产生的排除、限制竞争问题。    （七）明确程序规则。涉及其他部门职责的政策措施，由牵头部门负责公平竞争审查，其他部门在各自职责范围内参与公平竞争审查。政策措施需要向其他部门征求意见的，政策制定机关应先进行公平竞争审查，再按程序征求意见。     三、健全机制保障，强化刚性约束    （八）加强机制建设。加强公平竞争审查抽查检查、举报处理和回应等机制建设，充分发挥司法行政部门依法对行政规范性文件进行备案审查的职能，未经公平竞争审查的规范性文件不得出台。完善重大政策措施会审工作机制，市场监管部门加大对政策制定机关公平竞争审查的支持力度，对拟以政府或政府办名义出台的涉及市场主体经营活动的政策措施，依申请及时会商会审，形成明确意见。对《实施细则》要求应当引入第三方评估的情形，依法开展第三方评估;对《实施细则》未要求引入第三方评估的情形，支持鼓励政策制定机关开展第三方评估。市联席会议办公室将选择部分区人民政府和市级政府部门进行试点，对其开展贯彻落实公平竞争审查制度情况进行第三方评估，形成评估报告报市人民政府，切实提高审查的科学性、准确性。    （九）严格监督考核。各区人民政府、市级政府部门贯彻落实《实施细则》情况与年度绩效等考核评价体系及督查工作挂钩，反垄断执法机构或上级部门在督查检查中发现存在违反公平竞争审查规定出台政策措施的，其制定机关年度绩效考评或质量工作考核中公平竞争审查考核指标总评分记为零分。市联席会议办公室推动建立对公平竞争审查制度落实情况的监督问责机制，对工作中出现问题并造成不良后果的依法依规严肃处理。     四、积极宣传培训，狠抓能力建设 　 （十）营造公平竞争文化氛围。充分利用主流媒体和新媒体平台，加强《实施细则》宣传解读，扩大在社会公众、市场主体中的影响力。强化外部监督，引导社会公众、市场主体等利益相关方积极举报妨碍统一市场和公平竞争的政策措施，为公平竞争审查工作营造良好社会环境。       （十一）加强审查队伍能力建设。市场监管部门负责制定我市公平竞争审查工作规范指引，切实提升公平竞争政策意识和审查业务水平。市场监管部门要组织开展公平竞争审查业务培训，突出共性问题研究和典型案例分析。充分发挥高校、研究机构、律师事务所等单位专业力量作用，为我市公平竞争审查工作提供智力支持及人才保障。                                                                   2021年11月5日",
                "CrTime": "2021-11-16T01:10:52.000Z"
            },
            {
                "AttachPic": 2,
                "GJC": "",
                "WZFL": "",
                "FZYJ": "",
                "ZCJD": "25823",
                "OriginMetaDataId": 5712595,
                "ChannelId": 152039,
                "AttachVideo": 0,
                "highlight": {},
                "BT": "市农业农村委关于印发《天津市光伏农业温室及园区建设技术规范（试行）》的通知",
                "DOCPUBURL": "http://nync.tj.gov.cn/ZWGK0/ZCFG152022/202111/t20211118_5712595.html",
                "WCMMetaTableGovZhengCeWenJianID": 206685,
                "MetaDataId": 5712595,
                "XGBD": "",
                "YXX": "0",
                "FBRQ": "2021-11-16T00:00:00.000+0800",
                "IDXID": "11120000MB18849449/2021-00566",
                "FWZH": "津农委〔2021〕32号",
                "LHFWDW": "",
                "ZTFL": "1119",
                "ZTFL_name": "政务公开",
                "AVAILABLE": true,
                "VersionNum": 0,
                "OrganCat": "1336",
                "JB": "1",
                "CrUser": "zhangxuefei_nw",
                "DXFL": "0,1",
                "trs_warehouse_time": "2021-11-18T08:05:11.483Z",
                "_id": "5712595",
                "ThumbFiles": "W020211118556223952354.png",
                "FWJG_name": "天津市农业农村委员会",
                "ZW": "市农业农村委关于印发《天津市光伏农业温室及园区建设技术规范（试行）》的通知 市农科院、市农业发展服务中心，各涉农区农业农村委： 为科学推动我市光伏农业温室及园区标准化建设，促进设施农业高质量发展，我委编制了《天津市光伏农业温室及园区建设技术规范（试行）》，现印发给你们，请照此执行。     天津市农业农村委员会                    2021年11月15日 （联系人：陈海旺；联系电话：28450520） （此件主动公开） 天津市光伏农业温室及园区建设技术规范 （试行） 1 总 则 1.1 为科学推动我市光伏农业温室及园区标准化建设，促进设施农业高质量发展，根据《国土资源部 国务院扶贫办 国家能源局关于支持光伏扶贫和规范光伏发电产业用地的意见》（国土资规〔2017〕8号）《天津市设施农业“十四五”发展规划》（津农委〔2021〕6号）《天津市2021年设施农业（种植业）建设实施方案》（津农委〔2021〕10号）《市国土房管局 市发展改革委关于规范光伏发电产业用地管理的通知》（津国土房资函字〔2017〕1741号）等文件要求，结合我市实际，制定本规范。 1.2 光伏农业温室及园区是指在符合国土空间规划相关管控要求和国家法律法规要求前提下，将太阳能光伏发电和农业种植相结合的项目。各涉农区计划新建的该类项目，温室大棚建设选址须符合本区设施农业专项规划布局要求，依托温室大棚建设的光伏发电项目须符合本区光伏发电专项规划。 本规范适用于我市光伏农业温室及园区。 2 建设原则 2.1 光伏农业温室及园区的建设必须遵循“以农业为主、光伏为辅，农业与光伏产业互补共赢”的原则，在符合国家和我市政策规定基础上，温室和光伏发电设施建设要同时进行整体系统设计，达到节地、节能、高效、可持续及生态循环效果。温室设计方案须经过市、区两级论证通过后才可开工建设。 2.2 各涉农区要始终以实现设施农业又好又快发展为目标，根据当地气候、资源、生产方式、种植传统等特点，科学引进利用光伏发电项目，在保证优先发展设施农业基础上，同步新建的光伏发电项目需注重通过技术创新、管理创新和机制创新，着力提高设施综合生产能力以及经济、社会和生态效益。 3 建设标准 3.1 园区中新建的温室应选择我市设施农业（种植业）的主推温室类型，温室建筑面积应不少于占地面积的40%。棚室选址、设计及建造可参考《天津市设施农业温室大棚建造技术规范》中关于日光温室的技术规范，其中，日光温室跨度应在7米以上，高跨比不小于0.35。园区基础设施应建设到位，具备可靠完善的水电路渠设施配套。设施棚室骨架抗风 8 级以上，风压 0.30 kN/㎡以上，作物吊重0.15 kN/㎡ 以上，雪压0.50 kN/㎡ 以上。棚室达到整体美观、保温性能好、抵御自然灾害能力强、满足农作物生产的要求。 3.2 光伏组件应架设在日光温室后屋面上方，须单排设置且不影响前后棚室采光和作物种植，光伏组件最低点离地面高度应大于3.5米。设施棚内作物单产水平应不低于我市同类作物同时间茬次、同设施类型平均单产水平。 3.3 依托日光温室建设光伏设施的，光伏板高度应满足冬至日晴天9:00时后不影响后排棚室内作物种植的采光需求，且光伏板最低点不能延伸至温室的前屋面，温室后屋面水平投影长度不超过2米。 3.4 本规范适用于依托日光温室建设的光伏发电项目，原则上不鼓励依托塑料大棚等其它棚室类型建设光伏设施。但对属于本区特色种植需要，确需发展其它设施类型的，棚室及园区设计方案按照《市农业农村委关于切实加强光伏设施农业项目管理的函》（津农委函〔2021〕10号）执行。 光伏农业温室示意图 3.5 园区的设计和建设应符合《光伏发电站安全规程（GB/T 35694—2017）》的相关规定，其安全设施、消防设施、防治污染措施、职业病危害防护措施应满足与主体工程同时设计、同时施工、同时投入生产和使用的要求。在光伏园区投入运行使用前，应编制各类突发事件应急预案。光伏企业要定期组织园区的农业生产人员进行安全生产培训，并做好防止人身触电及火灾的相关措施。 3.6 光伏设施用地管理按照《市国土房管局 市发展改革委关于规范光伏发电产业用地管理的通知》（津国土房资函字〔2017〕1741号）等文件执行。 4 配套装备 4.1 棚室内设置补光照明和物理防虫设施，满足农作物正常生长需要；根据作物品种，设施内可配置二氧化碳、光照度、温度、湿度以及土壤温湿度等监测和自动控制系统。 4.2 棚室内农作物灌溉应采用喷灌、滴灌等节水措施；设施升温应以太阳能、电能等清洁供暖为主，降温应采用自然通风或强制通风方式。 4.3 棚室宜采取自然通风、遮阴降温或强制通风、安装水帘、弥雾设施等适当调整棚内湿度的降温方式。 5 档案资料 建立棚室建造档案，保存施工合同、施工记录、设计与施工或竣工图纸等相关文件资料，以备查阅。",
                "CrTime": "2021-11-18T07:27:02.000Z"
            }
        ],
        "total": "40643",
        "pageSize": 10,
        "pageNumber": 1,
        "searchProperty": null,
        "searchValue": null,
        "orderProperty": "FBRQ",
        "orderDirection": "desc",
        "totalPages": 4065
    }
}