{
    "success": true,
    "msg": "操作成功",
    "data": {
        "middle": {
            "list": [
                {
                    "table-1": "惠府办发〔2021〕49号",
                    "table-2": "000014349/2021-3895287",
                    "table-3": "2021-11-20 16:37:24",
                    "table-4": "惠水县人民政府办公室",
                    "table-5": null,
                    "table-6": null,
                    "table-7": "",
                    "table-8": null,
                    "source": "惠水县人民政府办公室",
                    "title": "惠水县人民政府办公室关于印发《惠水县变型拖拉机专项整治行动工作方案》的<em>通知</em>（惠府办发〔2021〕49号）",
                    "url": "http://www.gzhs.gov.cn/zwgk/xxgkml/jcxxgk/zcwj/zfwj/hfbf/202111/t20211120_71748172.html",
                    "title_no_tag": "惠水县人民政府办公室关于印发《惠水县变型拖拉机专项整治行动工作方案》的通知（惠府办发〔2021〕49号）",
                    "displayTemplateId": 2561,
                    "documentId": "d45_PH0B6lAMw29fNL38",
                    "time": "2021-11-20 16:57:11"
                },
                {
                    "table-1": "惠府办发〔2021〕54号",
                    "table-2": "000014349/2021-3895307",
                    "table-3": "2021-09-04 15:00:00",
                    "table-4": "惠水县人民政府办公室",
                    "table-5": null,
                    "table-6": null,
                    "table-7": "",
                    "table-8": null,
                    "source": "惠水县人民政府办公室",
                    "title": "惠水县人民政府办公室关于印发《惠水县2021年耕地地力保护补贴​实施方案》的<em>通知</em>（惠府办发〔2021〕54号）",
                    "url": "http://www.gzhs.gov.cn/zwgk/xxgkml/jcxxgk/zcwj/zfwj/hfbf/202111/t20211120_71748209.html",
                    "title_no_tag": "惠水县人民政府办公室关于印发《惠水县2021年耕地地力保护补贴​实施方案》的通知（惠府办发〔2021〕54号）",
                    "displayTemplateId": 2561,
                    "documentId": "mo-LPH0B6lAMw29fE-Yu",
                    "time": "2021-11-20 16:55:02"
                },
                {
                    "table-1": "黔公明传〔2021〕98号",
                    "table-2": null,
                    "table-3": null,
                    "table-4": null,
                    "table-5": "",
                    "table-6": null,
                    "source": "",
                    "title": "关于开展厅机关政府规章和行政规范性文件全面清理工作的<em>通知</em>",
                    "url": "http://gat.guizhou.gov.cn/zfxxgk/fdzdgknr/zcwj_5626335/gfxwj_5626339/gfxwjqljg_5626341/202111/t20211120_71744205.html",
                    "title_no_tag": "关于开展厅机关政府规章和行政规范性文件全面清理工作的通知",
                    "displayTemplateId": 2562,
                    "documentId": "Pq4vPH0BM-ImFxeyKUDq",
                    "time": "2021-11-20 15:06:55"
                },
                {
                    "table-1": "桐府办函〔2021〕167号",
                    "table-2": "000014349/2021-3706484",
                    "table-3": "2021-10-25 18:50:00",
                    "table-4": "桐梓县人民政府办公室",
                    "table-5": null,
                    "table-6": null,
                    "table-7": "",
                    "table-8": null,
                    "source": "桐梓县人民政府办公室",
                    "title": "桐梓县人民政府办公室关于印发桐梓县农村问题户厕整改实施方案的<em>通知</em>桐府办函〔2021〕167号",
                    "url": "http://www.gztongzi.gov.cn/xxgk/xxgkml/jcxxgk/zcwj/tfbhhh/202110/t20211029_71460063.html",
                    "title_no_tag": "桐梓县人民政府办公室关于印发桐梓县农村问题户厕整改实施方案的通知桐府办函〔2021〕167号",
                    "displayTemplateId": 2561,
                    "documentId": "hMGsy3wB6lAMw29f0DHz",
                    "time": "2021-11-20 11:36:30"
                },
                {
                    "table-1": "522-03-02-08-0841",
                    "table-2": "GZ000001/2013-01849",
                    "table-3": "",
                    "table-4": "贵州省交通运输厅",
                    "table-5": "",
                    "table-6": "",
                    "table-7": "",
                    "table-8": null,
                    "source": "贵州省交通运输厅",
                    "title": "贵州省交通运输厅关于印发《贵州省高速公路在建项目建设单位评价实施细则（试行）》的<em>通知</em>",
                    "url": "http://jt.guizhou.gov.cn/zfxxgk/fdzdgknr/zcwj_5626878/202002/t20200217_49592445.html",
                    "title_no_tag": "贵州省交通运输厅关于印发《贵州省高速公路在建项目建设单位评价实施细则（试行）》的通知",
                    "displayTemplateId": 2561,
                    "documentId": "4Wi7OH0B6lAMw29fU8Xc",
                    "time": "2021-11-19 23:09:19"
                },
                {
                    "table-1": "威府办发〔2021〕2号",
                    "table-2": null,
                    "table-3": "2021-11-19 17:54:16",
                    "table-4": "",
                    "table-5": null,
                    "table-6": null,
                    "table-7": null,
                    "table-8": null,
                    "source": "",
                    "title": "威宁自治县人民政府办公室关于印发《关于进一步规范威宁自治县可再生能源产业发展的指导意见》的<em>通知</em>",
                    "url": "http://www.gzweining.gov.cn/zfxxgk/fdzdgknr/lzyj/zcwj_5629562/202111/t20211119_71739117.html",
                    "title_no_tag": "威宁自治县人民政府办公室关于印发《关于进一步规范威宁自治县可再生能源产业发展的指导意见》的通知",
                    "displayTemplateId": 2561,
                    "documentId": "K1ieN30B6lAMw29frbjP",
                    "time": "2021-11-19 17:54:16"
                },
                {
                    "table-1": "七星府办通〔2021〕160号‍‍",
                    "table-2": "000014349/2021-3866821",
                    "table-3": "2021-11-17 16:26:48",
                    "table-4": "毕节市七星关区人民政府办公室",
                    "table-5": null,
                    "table-6": null,
                    "table-7": "",
                    "table-8": null,
                    "source": "毕节市七星关区人民政府办公室",
                    "title": "毕节市七星关区人民政府办公室关于公布毕节市七星关区权责清单目录（2021年版）的<em>通知</em>",
                    "url": "http://www.bjqixingguan.gov.cn/zwgk_500441/xxgkml/jcxxgkml/zcwj/bmwj/202111/t20211117_71705176.html",
                    "title_no_tag": "毕节市七星关区人民政府办公室关于公布毕节市七星关区权责清单目录（2021年版）的通知",
                    "displayTemplateId": 2561,
                    "documentId": "aUgDLX0B6lAMw29f8F-5",
                    "time": "2021-11-19 16:32:18"
                },
                {
                    "table-1": "",
                    "table-2": "000014349/2021-3885609",
                    "table-3": null,
                    "table-4": null,
                    "table-5": "市场监督管理总局",
                    "table-6": "",
                    "source": "市场监督管理总局",
                    "title": "市场监管总局关于印发《企业境外反垄断合规指引》的<em>通知</em>",
                    "url": "http://amr.guiyang.gov.cn/zwgk/zfxxgk/fdzdgknr/fggw/bmwj_5772384/202111/t20211119_71736600.html",
                    "title_no_tag": "市场监管总局关于印发《企业境外反垄断合规指引》的通知",
                    "displayTemplateId": 2562,
                    "documentId": "4EM8N30B6lAMw29fzrfL",
                    "time": "2021-11-19 16:05:37"
                },
                {
                    "table-1": "",
                    "table-2": "000014349/2020-21911",
                    "table-3": "2018-10-12 00:00:00",
                    "table-4": "县政府办",
                    "table-5": "",
                    "table-6": null,
                    "table-7": "",
                    "table-8": "",
                    "source": "县政府办",
                    "title": "关于印发《榕江县2018年第三季度政务公开工作情况通报》的<em>通知</em>",
                    "url": "http://www.rongjiang.gov.cn/zwgk/xxgkml/jcxxgk/zcwj/xzfwj/201810/t20181026_40576305.html",
                    "title_no_tag": "关于印发《榕江县2018年第三季度政务公开工作情况通报》的通知",
                    "displayTemplateId": 2561,
                    "documentId": "35686094",
                    "time": "2021-11-19 16:02:09"
                },
                {
                    "table-1": "",
                    "table-2": "000014349/2020-21911",
                    "table-3": "2018-10-12 00:00:00",
                    "table-4": "县政府办",
                    "table-5": null,
                    "table-6": null,
                    "table-7": "",
                    "table-8": null,
                    "source": "县政府办",
                    "title": "关于印发《榕江县2018年第三季度政务公开工作情况通报》的<em>通知</em>",
                    "url": "http://www.rongjiang.gov.cn/zfxxgk/fdzdgknr/zcwj_5626920/zfgw/202002/t20200222_50676837.html",
                    "title_no_tag": "关于印发《榕江县2018年第三季度政务公开工作情况通报》的通知",
                    "displayTemplateId": 2561,
                    "documentId": "37659688",
                    "time": "2021-11-19 16:02:09"
                }
            ],
            "box": []
        },
        "left": null,
        "right": {
            "box": []
        },
        "searchInfo": {
            "searchWord": "通知",
            "searchTerms": null,
            "hitWord": null,
            "wordId": null,
            "wordIndexName": null
        },
        "pager": {
            "pageNo": 1,
            "pageSize": 10,
            "pageCount": 1000,
            "total": 10000
        },
        "spendTime": 0.012
    },
    "code": 200
}