{
    "filter": {
        "DOCTITLE,DOCCONTENT-or": "通知",
        "NF-like": "2019",
        "AVAILABLE": "true"
    },
    "__index": "sx-index-alias",
    "__type": "zcwjk_subcat",
    "pageable": {},
    "queryFilter": {
        "filter": {
            "DOCTITLE,DOCCONTENT-or": "通知",
            "NF-like": "2019",
            "AVAILABLE": "true"
        },
        "fieldAndValues": null
    },
    "hasFilter": true,
    "page": {
        "content": [
            {
                "NFLevel1": "公开年份分类",
                "branchLevel1": "按发布机构分类",
                "PUBDATE": "2019-12-27T07:59:36.000Z",
                "type": "主题分类",
                "DOCID": 2033402,
                "DOCCONTENT": "各设区市林业局、杨凌示范区林业局，韩城市林业局、省直管县林业局，局机关有关处室，局直属有关单位：　　根据中、省食品安全管理工作的统一部署，为进一步强化食品安全动态监管，及时了解掌握全省食用林产品质量安全状况，切实防控食品安全风险，省林业局决定在全省组织开展2020年食用林产品质量安全监测工作。现将有关事项通知如下：　　一、提高思想认识，坚守食品安全底线　　开展食用林产品质量安全监测是依法加强林产品质量安全监管、保障质量安全的重要手段，该项工作已纳入国家和省级食品安全评议考核范围，由国家市场监督管理总局和省食安委分别负责考核。各级林业部门要切实提高思想认识，明确监管职责，坚持产管并重，强化全程管控，认真排查辖区内食用林产品安全风险，切实落实生产经营者主体责任，全面了解掌握本辖区食用林产品质量安全状况，确保林产品质量安全。 　　二、明确目标要求，落实监测任务　　2020年全省食用林产品质量安全监测产品以核桃、鲜枣、花椒、板栗、山杏等为主，兼顾重点区域农业投入品、产地土壤和朱鹮栖息地土壤，监测对象主要为食用林产品企业、专业合作社组织和种植大户。2020年质量安全监测任务在全省范围内具体安排为食用林产品及其产地土壤质量安全监测950批次，专项监测80批次，林地土壤安全监测470批次，朱鹮栖息地环境监测100批次。各级林业主管部门要指定专人配合省级抽检工作，确保监测任务顺利完成。各市（区）林业主管部门可结合本地实际，制定本级监测计划。　　三、严格程序标准，确保监测质量　　我省食用林产品安全监测工作由省林产品质检与产业服务保障中心具体实施。监测单位要按照《2020年林产品质量安全监测方案》（见附件），依据相关规定和标准，确保抽样检测科学性、公正性和真实性。省级监测抽样检测所需费用从专项经费中列支，不得向被抽检单位收取任何费用。监测单位要对抽样检测情况进行全面分析，形成总结分析报告，及时报送省林业局。　　联系人: 王陆旭　张小龙 　　电　话：029-88652021　13991301276\r\n　　附件：2020年林产品质量安全监测方案 \r\n陕西省林业局2019年12月26日",
                "CHNLID": 4647,
                "highlight": {
                    "DOCCONTENT": [
                        "质量安全状况，切实防控食品安全风险，省林业局决定在全省组织开展2020年食用林产品质量安全监测工作。现将有关事项<em>通知</em>如下：　　一、提高思想认识，坚守食品安全底线　　开展食用林产品质量安全监测是依法加强"
                    ],
                    "DOCTITLE": [
                        "关于做好2020年食用林产品质量安全监测工作的<em>通知</em>"
                    ],
                    "NF": [
                        "<em>2019</em>"
                    ]
                },
                "DOCTITLE": "关于做好2020年食用林产品质量安全监测工作的通知",
                "DOCPUBURL": "http://lyj.shaanxi.gov.cn/zfxxgk/fdzdgknr/zcwj/qtgw/slz/201912/t20191227_2032967.html",
                "branchLevel3": "省林业局",
                "branchLevel2": "省政府部门文件",
                "aggFiletype": "",
                "aggSubcat": "",
                "fwrq": "2019-12-27T07:59:36.000Z",
                "RECID": 2032967,
                "opertime": "2020-12-10T09:07:03.000Z",
                "SITEID": 18,
                "CHNLDESC": "陕林  字",
                "publishdept": "省林业局",
                "AVAILABLE": "是",
                "show_type": "政策文件库",
                "filetypeLevel3": "",
                "SITEDESC": "陕西省林业局",
                "filetypeLevel2": "",
                "filetypeLevel1": "",
                "NF": "2019",
                "SUBCAT": "其他",
                "_id": "2033402",
                "level1": "主题分类",
                "level3": "",
                "aggBranch": "省林业局-25",
                "aggNF": "2019-32",
                "KEYWORDS": "林产品;监测;质量安全;食用;林业局",
                "level2": "其他-22"
            },
            {
                "NFLevel1": "公开年份分类",
                "branchLevel1": "",
                "PUBDATE": "2019-12-26T08:10:08.000Z",
                "type": "主题分类",
                "DOCID": 1668660,
                "DOCCONTENT": "各设区市人民政府，省人民政府各工作部门、各直属机构：\n现将《陕西省推进国有资本投资、运营公司改革试点实施方案》印发给你们，请认真组织实施。　\n陕西省人民政府\n2019年12月22日\n\n\n陕西省推进国有资本投资、运营公司改革试点实施方案\n为推进我省国有资本投资、运营公司改革试点工作，推动国有企业高质量发展，根据《国务院关于推进国有资本投资、运营公司改革试点的实施意见》（国发〔2018〕23号）精神，结合我省实际，制定本实施方案。\n一、总体要求\n（一）指导思想。\n以习近平新时代中国特色社会主义思想为指导，全面贯彻党的十九大和十九届二中、三中、四中全会精神，坚持社会主义市场经济改革方向，坚定不移加强党对国有企业的领导，着力创新体制机制，完善国有资产管理体制，深化国有企业改革，优化国有资本布局，提高国有资本配置和运营效率，促进国有资产保值增值，有效防止国有资产流失，加快培育具有较强竞争力的一流企业，推动国有资本做强做优做大，确保国有企业成为推动全省经济高质量发展的主力军和排头兵，为我省实现追赶超越做出积极贡献。\n（二）试点目标。\n通过国有资本投资、运营公司改革试点工作，构建国有资本投资、运营主体，改革国有资本授权经营体制，实现国有资产管理体制向管资本为主的转变。科学合理界定政府、国资监管机构与国有资本投资、运营公司及所持股企业的权利边界，健全权责利相统一的授权链条；不断完善出资人对国有资本投资、运营公司的监管机制，明确功能定位，探索有效的管控模式和运营方式；发挥国有资本投资、运营公司的资本市场化运作平台作用，促进国有资本合理流动，推动国有资本集聚整合，提高国有资本配置和运营效率，激发企业市场主体活力，培育一批特色鲜明、功能突出、带动力强的国有资本投资、运营公司，引领我省国有企业高质量发展。\n二、试点内容\n（一）功能定位。\n国有资本投资、运营公司均为在政府授权范围内履行国有资本出资人职责的国有独资公司，是国有资本市场化运作的专业平台。公司以资本为纽带、以产权为基础依法自主开展国有资本运作，不从事具体生产经营活动。\n国有资本投资公司主要以服务国家和我省经济社会发展重大决策部署、优化国有资本布局、提升产业竞争力为目标，以战略性核心业务控股为主。通过开展投资融资、产业培育和资本运作等，发挥投资引导和结构调整作用，推动产业集聚和转型升级，培育核心竞争力和创新能力，带动国有资本整合集中，着力提升国有资本控制力、影响力。\n国有资本运营公司主要以提升国有资本运营效率、提高国有资本回报为目标，以财务性持股为主，投资可不受主业限制。通过股权运作、基金投资、培育孵化、价值管理、有序进退等方式，盘活国有资产存量，引导和带动社会资本共同发展，实现国有资本合理流动和保值增值。\n（二）职责任务。\n国有资本投资、运营公司对所持股企业行使股东职责，维护股东合法权益，以出资额为限承担有限责任，按照责权对应原则切实承担优化国有资本布局、集聚国有资本，提升国有资本运营效率、实现国有资产保值增值等责任。\n国有资本投资公司应积极聚焦国有资源、资产、资本的横向归并及纵向整合，对产业相近、行业相关、业务相同的股权和资产，牵头实施整合和重组，提升协同效应，减少重复投资，消除同业竞争，助力供给侧结构性改革，化解过剩产能，积极培育战略性新兴产业，不断提高国有资本的活力和竞争力，实现高质量发展。\n国有资本运营公司应积极聚焦国有资本的流动及增值，以持有、划入或投资形成的股权或资产为运营对象。运用股权管理、基金投资、资产证券化、资产管理等市场化的运作方式，提高国有资本的流动性，构建国有资本的价值发现、创造和实现机制，确保国有资本的保值增值，并集聚国有资本投向符合我省经济社会发展方向的行业和领域，引导、带动社会资本共同发展。\n（三）组建方式。\n我省国有资本投资、运营公司可以采取在原有企业基础上改组和通过资源整合新设两种方式设立。\n（四）授权机制。\n按照分类授权的原则开展国有资本投资、运营公司改革试点。\n1．国有资产监管机构或部门授权模式。对由政府授权国资监管机构履行出资人职责的企业，采取国有资产监管机构授权模式；对由宣传部门、财政部门直接监管的文化类、金融类企业，经政府批准，采取宣传部门、财政部门分别授权模式。\n2．国有资产监管机构或部门按照“一企一策”原则，授权国有资本投资、运营公司履行出资人职责，制定监管清单、责任清单，明确对国有资本投资、运营公司的监管内容和方式，做好公司章程管理，依法落实国有资本投资、运营公司董事会职权。\n（五）治理结构。\n国有资本投资、运营公司由国有资产监管机构或部门行使股东会职权，可以授权国有资本投资、运营公司董事会行使股东会部分职权。国有资本投资、运营公司按照中国特色现代国有企业制度的要求，设立党组织、董事会、经理层，规范公司治理结构，建立健全权责对等、运转协调、有效制衡的决策执行监督机制，充分发挥党组织的领导作用、董事会的决策作用、经理层的经营管理作用。国有资本投资、运营公司逐步推行经理层任期制和契约化管理，完善市场化经营机制。\n国有资本投资、运营公司领导班子及其成员按照干部管理权限进行管理。\n（六）运行模式。\n国有资本投资、运营公司根据国家改革试点政策，按照市场化、法治化、规范化、专业化的目标，积极探索和建立符合自身实际的职责清晰、精简高效、运行专业的国有资本管控和运营模式，切实完善市场化经营机制，努力构建具备市场竞争力和活力的国有资本投资、运营主体。\n国有资本投资公司建立以战略目标和财务效益为主的管控模式，对所持股企业考核侧重于执行公司战略和资本回报状况。国有资本运营公司建立财务管控模式，对所持股企业考核侧重于国有资本流动和保值增值状况。\n国有资本投资、运营公司要根据自身功能和定位，着重在组织架构、治理机制、选人用人、战略规划、资本运作、财务监管、风险管控、激励约束、绩效评价、监督审计以及加强党建等方面积极探索，大胆试点，不断优化，确保取得试点成效。\n（七）监管机制。\n国有资产监管机构或部门按照事前规范制度、事中加强监控、事后强化问责的原则，积极协同其他监督力量，加强对国有资本投资、运营公司的统筹监督，形成监督合力，提高监督效能。\n国有资产监管机构或部门负责组织对国有资本投资、运营公司进行考核和评价，定期向本级政府报告国有资本投资、运营公司贯彻重大决策部署、国有资产保值增值等情况。\n三、工作步骤\n（一）深化前期试点。\n继续深化前期开展的国有资本投资、运营公司试点工作，根据政策和实际进一步调整完善改革试点方案，持续推进。\n（二）稳步推进改革试点。\n再选择一批企业开展国有资本投资、运营公司改革试点，试点企业应具备以下条件：\n1．具有较强的市场竞争力，产业布局良好，产业优势地位突出，且在同行业竞争中处于优势地位，具有一定产业整合能力。\n2．具有良好的持续盈利能力。公司具备足够的资产规模、利润水平和社会认可度，债务风险可控，最近三个会计年度的净利润应均为正值。\n3．具有完善的法人治理结构，运行管理规范，集团管控能力较强，管控体系健全，近三年未出现重大资产损失。\n4．具有较强的投融资能力，具有较强的战略管理能力、投资决策能力、资产管理能力和风险防控能力。\n国有资本运营公司试点企业还应具有较为丰富的资本运作经验，具有专业化资本运营人才队伍，具有足够的资金实力。\n（三）严把改革试点质量标准。\n纳入改革试点的企业要根据国务院和我省政策，结合实际制订试点方案，试点方案经履行国有资产监管职责的机构或部门批准后实施。试点企业要按照制订方案、组织实施、跟踪督查、评估验收等阶段扎实推进试点工作。\n国资监管机构或部门要加强对改革试点工作的指导和督查工作，定期组织进行评估验收，对未按方案实施、推进不力或未取得明显成效的，要终止试点，收回授权；对评估验收合格的，要继续深化并及时形成改革经验进行推广复制。\n（四）推动国有企业转型升级。\n通过国有资本投资、运营公司改革试点，推动国有企业在承接授权、组织架构、运行机制、治理模式等方面实现重构转型，推动国有企业在资源配置、资本运作、战略管控、法人治理等方面实现全面升级，推动国有企业治理体系、治理能力的现代化。\n四、配套政策\n（一）加快简政放权。\n围绕落实出资人职责的定位，优化监管职能，有序推进对国有资本投资、运营公司的放权授权，可将包括国有产权流转等决策事项的审批权、战略规划和年度投资计划的决定权、经营班子业绩考核和薪酬管理权等部分股东权利授予国有资本投资、运营公司，相关管理要求和运行规则通过试点方案和公司章程予以明确，确保授得出、接得住、管得好。\n（二）综合推进改革。\n优先支持国有资本投资、运营公司在符合条件的持股企业中开展混合所有制改革、混合所有制企业员工持股、职业经理人选聘、薪酬分配差异化改革等其他改革工作，充分发挥国有资本投资、运营公司改革试点和各项改革工作的综合效应。\n（三）完善支持政策。\n严格落实国有企业重组整合涉及的资产评估增值、土地变更登记和国有资产无偿划转等方面税收优惠政策。简化工商税务登记、变更程序。研究制定国有资本投资、运营公司的国有资本经营预算收支管理政策。\n（四）发挥资本运作功能。\n根据国有资本投资、运营公司的具体定位和发展需要，可以通过无偿划转或市场化方式重组整合相关国有资本，划入现有企业整体股权（资产）或部分股权；也可以结合党政机关和行政事业单位经营性国有资产集中统一监管工作，将有关资产划入国有资本投资、运营公司。支持国有资本投资、运营公司充分借助资本市场，不断提高资本证券化水平，提高所属上市公司质量。\n支持国有资本投资公司作为产业整合集聚的主体，支持国有资本运营公司作为资本流转运作的主体，不断推动国有资本向关系国民经济命脉的重点行业、关键领域和优势企业集中，实现我省国有资本结构和布局的调整优化，提高国有资本配置和运营效率，更好地服务于国家和我省经济社会发展战略。\n五、组织实施\n省国有企业改革领导小组负责我省国有资本投资、运营公司改革试点工作的组织协调和督促落实，各成员单位要按照职责分工密切配合，落实政策，协同推进，确保试点取得成效。\n各设区市人民政府根据本地区实际开展国有资本投资、运营公司改革试点工作，并及时将实施情况报省国有企业改革领导小组办公室备案。",
                "CHNLID": 199,
                "highlight": {
                    "DOCTITLE": [
                        "陕西省人民政府关于印发推进国有资本投资、运营公司改革试点实施方案的<em>通知</em>"
                    ],
                    "NF": [
                        "<em>2019</em>"
                    ]
                },
                "DOCTITLE": "陕西省人民政府关于印发推进国有资本投资、运营公司改革试点实施方案的通知",
                "DOCPUBURL": "http://www.shaanxi.gov.cn/zfxxgk/fdzdgknr/zcwj/szfwj/szf/201912/t20191226_1668424.html",
                "branchLevel3": "",
                "branchLevel2": "",
                "aggFiletype": "陕政发-2",
                "aggSubcat": "其他-7-39",
                "fwrq": "2019-12-26T08:10:08.000Z",
                "RECID": 1668424,
                "opertime": "2021-10-23T07:14:02.000Z",
                "SITEID": 11,
                "CHNLDESC": "陕政发",
                "publishdept": "省政府办公厅",
                "AVAILABLE": "是",
                "show_type": "政策文件库",
                "filetypeLevel3": "陕政发",
                "SITEDESC": "陕西省人民政府",
                "filetypeLevel2": "省政府文件-2",
                "filetypeLevel1": "按发布机构分类",
                "NF": "2019",
                "SUBCAT": "其他",
                "_id": "1668660",
                "level1": "主题分类",
                "level3": "其他",
                "aggBranch": "",
                "aggNF": "2019-32",
                "KEYWORDS": "国有资本投资;国有资本;运营;陕西省人民政府;改革试点",
                "level2": "国民经济管理、国有资产监管-3"
            },
            {
                "NFLevel1": "公开年份分类",
                "branchLevel1": "",
                "PUBDATE": "2019-12-26T07:45:53.000Z",
                "type": "主题分类",
                "DOCID": 1667250,
                "DOCCONTENT": "各设区市人民政府，省人民政府各工作部门、各直属机构：\n《陕西省省级高新技术产业开发区认定管理办法》已经省政府同意，现印发给你们，请认真组织实施。\n陕西省人民政府办公厅\n2019年12月18日\n\n\n陕西省省级高新技术产业开发区认定管理办法\n第一章　总　则\n第一条　为规范省级高新技术产业开发区(以下简称省级高新区)的认定管理，促进全省高新区高质量发展，依据《国家高新技术产业开发区管理暂行办法》《陕西省高新技术产业发展条例》和《陕西省人民政府办公厅关于促进全省开发区改革和创新发展的实施意见》（陕政办发〔2017〕110号），结合我省实际，制定本办法。\n第二条　本办法所称省级高新区，是指经省政府批准，四至范围明确，界址点坐标清晰，秉承发展高科技、实现产业化的宗旨，重点培育发展高新技术产业和战略性新兴产业，承载高新技术成果转移转化的科技创新和产业集中开发区。\n第三条　省级高新区建设要深入实施创新驱动发展战略，深化体制机制改革，以提高自主创新能力为核心，积极营造良好创新创业生态，全面构建现代产业体系，将高新区建设成为全省创新驱动发展示范区和高质量发展先行区。\n第四条　省级高新区分为综合型和特色型两类。综合型高新区主要指设立在市（区）、发展基础较好、产业规模和辐射带动作用较大、经过培育有望升级国家高新区的园区；特色型高新区主要指设立在县(市、区)且有一定发展基础、特色产业突出、对县域经济支撑引领作用明显的园区。\n第五条　省级高新区管理工作遵循科学规划、分类指导、注重实效、严格审核的原则，确保省级高新区建设规范有序、健康发展。省级高新区所在地政府负责高新区的开发建设和管理工作，省科技厅负责高新区归口管理和协调指导，省发展改革委、省工业和信息化厅、省自然资源厅、省生态环境厅、省统计局等省级有关部门按照职责分工对高新区的工作进行指导和支持。\n第二章　认定条件\n第六条　省级高新区认定按照有利于集聚创新要素、科技经济紧密结合、促进区域协调发展的原则，严格标准、规范程序、合理布局，成熟一个、批准一个。\n第七条　建立培育制度，对有意愿创建省级高新区、满足定性条件但尚未达到定量条件的园区，省科技厅将其列为省级高新区培育对象，给予1—2年的培育期，指导创建省级高新区。省级示范县域工业集中区作为省级高新区建设培育的重要后备力量，优先培育。\n第八条　认定省级高新区应符合以下主要条件：\n（一）定性条件。\n1．园区发展指导思想和目标明确，符合全省高新区发展总体布局。“高”和“新”定位准确，产业布局合理，优势产业突出，主导产业属于国家或省重点发展的高新技术产业或战略性新兴产业。\n2．园区选址、区域范围划定合理，申报面积不超过10平方公里，特殊情况不超过15平方公里；布局相对集中，组成区块不超过3个；符合国土空间规划要求和陕西省区域空间生态环评“三线一单”。\n3．所在市、县、区政府出台支持高新区及高新技术产业发展的政策措施，鼓励设立高新区建设发展专项资金。科学、合理设计管理体制，根据有关规定按照优化、协同、高效的原则因地制宜设置管理机构。\n4．园区和企业与科研机构、高等院校建有良好的科技合作关系，积极开展产学研用合作等科技交流活动。\n（二）定量条件。\n1．综合型高新区。上年度工业总产值超过50亿元；科技型企业不少于50家，其中高新技术企业不少于10家；区内企业R&amp;D经费支出占主营业务收入不低于2%，企业新产品销售收入占主营业务收入不低于8%；各类科技创新平台不少于10家，科技企业孵化载体不少于5家。经济外向度（园区进出口总额占园区工业总产值的比重）不低于5%。\n2．特色型高新区。依托区域资源优势，围绕特色产业积极推进企业品牌、产业品牌和区域品牌建设，形成具有影响力的产业集群。上年度工业总产值超过30亿元，科技型企业不少于30家，其中高新技术企业不少于5家；特色产业产值占工业总产值不低于60%；区内企业R&amp;D经费支出占主营业务收入不低于1.5%，企业新产品销售收入占主营业务收入不低于8%；各类科技创新平台不少于5家，科技企业孵化载体不少于3家。第三章认定程序第九条认定省级高新区程序。\n（一）申请。符合省级高新区认定条件的园区，由所在地设区的市级政府向省政府提出申请。\n（二）考察。按照省政府批示意见，省科技厅会同省发展改革委、省工业和信息化厅、省自然资源厅、省生态环境厅、省统计局等有关部门及专家现场考察。\n（三）审核。省科技厅、省发展改革委、省工业和信息化厅、省自然资源厅、省生态环境厅、省统计局等省级有关部门按照职责分工审查各类申报材料，出具审核意见。\n（四）论证。省科技厅组织省发展改革委、省工业和信息化厅、省自然资源厅、省生态环境厅、省统计局等省级有关部门和专家召开论证会，审议相关规划和方案，将符合认定条件的园区报省政府审定。\n（五）批复。综合型高新区由省政府常务会议审议，特色型高新区由省政府领导审核签批。对审议通过和审核签批通过的省级高新区由省政府发文予以批复。\n第十条　申请省级高新区应提供以下材料：\n（一）园区发展情况报告；\n（二）拟建高新区总体规划、产业发展规划及建设实施方案；\n（三）所在地政府支持高新区及高新技术产业发展的政策文件；\n（四）园区规划环境影响报告书,生态环境部门对该报告书的审查意见及相关说明；\n（五）园区所在地设区的市级政府自然资源部门提供开发区设立用地情况报告和开发区土地集约利用评价成果报告；\n（六）园区科技创新、知识产权、近三年主要科技经济指标等方面的材料。\n第十一条　省级高新区升级、扩区、调区、核减面积、撤销（退出）及更名，由所在地设区的市级政府向省政府提出申请。\n第四章　指导管理\n第十二条　按照差异化、特色化、品牌化、集聚化原则，优化全省高新区建设布局，加强省市县区联动，推动高新区创新发展、转型升级。\n第十三条　引导高新区结合实际，加强规划引领，突出以航空航天、集成电路及光电芯片、新材料、智能制造、人工智能为代表的硬科技创新，加快高新技术产业和战略性新兴产业快速发展，发展壮大特色产业。\n第十四条　加快产城融合，推进产业发展、创新创业、城市服务等功能融合发展。加强孵化载体建设，加大科技企业培育，围绕园区主导产业打造高新技术企业集群。\n第十五条　加强监管和服务，严格按照法律法规、安全生产、环境保护等要求，建立激励高新区创新驱动高质量发展的“正面清单”，以及确保绿色和协调发展的限制与禁止事项“负面清单”。\n第十六条　建立精简高效的管理体制和运行机制，完善组织架构配置。根据高新区发展需要，所在地政府赋予高新区改革创新、先行先试的自主权，依法下放财政、规划、项目审批等管理权限。高新区各级领导干部任用管理按照相关干部任职政策执行,探索和鼓励高新区与科技管理部门互派干部挂职、任职。\n第十七条　根据《陕西省高新技术产业开发区考核评价管理办法》，省科技厅对省级高新区开展年度评价考核，评价结果报省政府审定，并通报高新区所在地政府。\n第十八条　认定为省级高新区和新获批国家高新区（农业高新区）给予一定奖励。鼓励地方各级财政加强配套支持，强化纵向协同。\n第五章　附则\n第十九条　本办法自公布之日起施行。",
                "CHNLID": 205,
                "highlight": {
                    "DOCTITLE": [
                        "陕西省人民政府办公厅关于印发省级高新技术产业开发区认定管理办法的<em>通知</em>"
                    ],
                    "NF": [
                        "<em>2019</em>"
                    ]
                },
                "DOCTITLE": "陕西省人民政府办公厅关于印发省级高新技术产业开发区认定管理办法的通知",
                "DOCPUBURL": "http://www.shaanxi.gov.cn/zfxxgk/fdzdgknr/zcwj/szfbgtwj/szbf/201912/t20191226_1667014.html",
                "branchLevel3": "",
                "branchLevel2": "",
                "aggFiletype": "陕政办发-1",
                "aggSubcat": "其他-7-39",
                "fwrq": "2019-12-26T07:45:53.000Z",
                "RECID": 1667014,
                "opertime": "2021-10-23T07:31:34.000Z",
                "SITEID": 11,
                "CHNLDESC": "陕政办发",
                "publishdept": "省政府办公厅",
                "AVAILABLE": "是",
                "show_type": "政策文件库",
                "filetypeLevel3": "陕政办发",
                "SITEDESC": "陕西省人民政府",
                "filetypeLevel2": "省政府办公厅文件-3",
                "filetypeLevel1": "按发布机构分类",
                "NF": "2019",
                "SUBCAT": "其他",
                "_id": "1667250",
                "level1": "主题分类",
                "level3": "其他",
                "aggBranch": "",
                "aggNF": "2019-32",
                "KEYWORDS": "新区;陕西省人民政府;办公厅;园区;省政府",
                "level2": "国民经济管理、国有资产监管-3"
            },
            {
                "NFLevel1": "公开年份分类",
                "branchLevel1": "",
                "PUBDATE": "2019-12-26T07:44:28.000Z",
                "type": "主题分类",
                "DOCID": 1665891,
                "DOCCONTENT": "省政府办公厅：\n省政府2019年12月18日决定，任命张丰为香港骊山有限公司总经理、陕西省人民政府驻广州办事处副主任（任职试用期满，任职时间由试用期时间算起）。\n陕西省人民政府\n2019年12月18日",
                "CHNLID": 201,
                "highlight": {
                    "DOCTITLE": [
                        "陕西省人民政府关于张丰任职的<em>通知</em>"
                    ],
                    "NF": [
                        "<em>2019</em>"
                    ]
                },
                "DOCTITLE": "陕西省人民政府关于张丰任职的通知",
                "DOCPUBURL": "http://www.shaanxi.gov.cn/zfxxgk/fdzdgknr/zcwj/szfwj/szrz/201912/t20191226_1665655.html",
                "branchLevel3": "",
                "branchLevel2": "",
                "aggFiletype": "陕政任字-4",
                "aggSubcat": "人事工作-3-121",
                "fwrq": "2019-12-26T07:44:28.000Z",
                "RECID": 1665655,
                "opertime": "2021-10-23T07:21:23.000Z",
                "SITEID": 11,
                "CHNLDESC": "陕政任字",
                "publishdept": "省政府办公厅",
                "AVAILABLE": "是",
                "show_type": "政策文件库",
                "filetypeLevel3": "陕政任字",
                "SITEDESC": "陕西省人民政府",
                "filetypeLevel2": "省政府文件-2",
                "filetypeLevel1": "按发布机构分类",
                "NF": "2019",
                "SUBCAT": "人事工作",
                "_id": "1665891",
                "level1": "主题分类",
                "level3": "人事工作",
                "aggBranch": "",
                "aggNF": "2019-32",
                "KEYWORDS": "陕西省人民政府;省政府办公厅;任职时间;骊山;办事处",
                "level2": "劳动、人事、监察-15"
            },
            {
                "NFLevel1": "公开年份分类",
                "branchLevel1": "",
                "PUBDATE": "2019-12-26T07:43:33.000Z",
                "type": "主题分类",
                "DOCID": 1665889,
                "DOCCONTENT": "陕西延长石油（集团）有限责任公司：\n省政府2019年12月16日决定，免去赵海涛的陕西延长石油（集团）有限责任公司董事职务，退休。\n陕西省人民政府\n2019年12月16日",
                "CHNLID": 201,
                "highlight": {
                    "DOCTITLE": [
                        "陕西省人民政府关于赵海涛免职的<em>通知</em>"
                    ],
                    "NF": [
                        "<em>2019</em>"
                    ]
                },
                "DOCTITLE": "陕西省人民政府关于赵海涛免职的通知",
                "DOCPUBURL": "http://www.shaanxi.gov.cn/zfxxgk/fdzdgknr/zcwj/szfwj/szrz/201912/t20191226_1665653.html",
                "branchLevel3": "",
                "branchLevel2": "",
                "aggFiletype": "陕政任字-4",
                "aggSubcat": "人事工作-3-121",
                "fwrq": "2019-12-26T07:43:33.000Z",
                "RECID": 1665653,
                "opertime": "2021-10-23T07:21:22.000Z",
                "SITEID": 11,
                "CHNLDESC": "陕政任字",
                "publishdept": "省政府办公厅",
                "AVAILABLE": "是",
                "show_type": "政策文件库",
                "filetypeLevel3": "陕政任字",
                "SITEDESC": "陕西省人民政府",
                "filetypeLevel2": "省政府文件-2",
                "filetypeLevel1": "按发布机构分类",
                "NF": "2019",
                "SUBCAT": "人事工作",
                "_id": "1665889",
                "level1": "主题分类",
                "level3": "人事工作",
                "aggBranch": "",
                "aggNF": "2019-32",
                "KEYWORDS": "陕西省人民政府;陕西延长石油;集团;董事职务;赵海涛",
                "level2": "劳动、人事、监察-15"
            },
            {
                "NFLevel1": "公开年份分类",
                "branchLevel1": "",
                "PUBDATE": "2019-12-26T07:42:28.000Z",
                "type": "主题分类",
                "DOCID": 1665890,
                "DOCCONTENT": "陕西有色金属控股集团有限责任公司：\n省政府2019年12月16日决定，免去刘学武的陕西有色金属控股集团有限责任公司董事职务，同意其不再担任副总经理职务，退休。\n请按有关规定办理。\n陕西省人民政府\n2019年12月16日",
                "CHNLID": 201,
                "highlight": {
                    "DOCTITLE": [
                        "陕西省人民政府关于刘学武免职的<em>通知</em>"
                    ],
                    "NF": [
                        "<em>2019</em>"
                    ]
                },
                "DOCTITLE": "陕西省人民政府关于刘学武免职的通知",
                "DOCPUBURL": "http://www.shaanxi.gov.cn/zfxxgk/fdzdgknr/zcwj/szfwj/szrz/201912/t20191226_1665654.html",
                "branchLevel3": "",
                "branchLevel2": "",
                "aggFiletype": "陕政任字-4",
                "aggSubcat": "人事工作-3-121",
                "fwrq": "2019-12-26T07:42:28.000Z",
                "RECID": 1665654,
                "opertime": "2021-10-23T07:21:22.000Z",
                "SITEID": 11,
                "CHNLDESC": "陕政任字",
                "publishdept": "省政府办公厅",
                "AVAILABLE": "是",
                "show_type": "政策文件库",
                "filetypeLevel3": "陕政任字",
                "SITEDESC": "陕西省人民政府",
                "filetypeLevel2": "省政府文件-2",
                "filetypeLevel1": "按发布机构分类",
                "NF": "2019",
                "SUBCAT": "人事工作",
                "_id": "1665890",
                "level1": "主题分类",
                "level3": "人事工作",
                "aggBranch": "",
                "aggNF": "2019-32",
                "KEYWORDS": "陕西省人民政府;陕西有色金属控股集团;总经理职务;董事职务;退休",
                "level2": "劳动、人事、监察-15"
            },
            {
                "NFLevel1": "公开年份分类",
                "branchLevel1": "",
                "PUBDATE": "2019-12-26T07:41:29.000Z",
                "type": "主题分类",
                "DOCID": 1665888,
                "DOCCONTENT": "西安邮电大学：\n省政府2019年12月16日决定，免去贾明远的西安邮电大学副校长职务，退休。\n陕西省人民政府\n2019年12月16日",
                "CHNLID": 201,
                "highlight": {
                    "DOCTITLE": [
                        "陕西省人民政府关于贾明远免职的<em>通知</em>"
                    ],
                    "NF": [
                        "<em>2019</em>"
                    ]
                },
                "DOCTITLE": "陕西省人民政府关于贾明远免职的通知",
                "DOCPUBURL": "http://www.shaanxi.gov.cn/zfxxgk/fdzdgknr/zcwj/szfwj/szrz/201912/t20191226_1665652.html",
                "branchLevel3": "",
                "branchLevel2": "",
                "aggFiletype": "陕政任字-4",
                "aggSubcat": "人事工作-3-121",
                "fwrq": "2019-12-26T07:41:29.000Z",
                "RECID": 1665652,
                "opertime": "2021-10-23T07:21:22.000Z",
                "SITEID": 11,
                "CHNLDESC": "陕政任字",
                "publishdept": "省政府办公厅",
                "AVAILABLE": "是",
                "show_type": "政策文件库",
                "filetypeLevel3": "陕政任字",
                "SITEDESC": "陕西省人民政府",
                "filetypeLevel2": "省政府文件-2",
                "filetypeLevel1": "按发布机构分类",
                "NF": "2019",
                "SUBCAT": "人事工作",
                "_id": "1665888",
                "level1": "主题分类",
                "level3": "人事工作",
                "aggBranch": "",
                "aggNF": "2019-32",
                "KEYWORDS": "陕西省人民政府;西安邮电大学;校长职务;退休;省政府",
                "level2": "劳动、人事、监察-15"
            },
            {
                "NFLevel1": "公开年份分类",
                "branchLevel1": "",
                "PUBDATE": "2019-12-26T07:40:35.000Z",
                "type": "主题分类",
                "DOCID": 1665884,
                "DOCCONTENT": "省司法厅：\n省政府2019年12月16日决定，免去韦进泉的陕西省监狱管理局副局长职务。\n陕西省人民政府\n2019年12月16日",
                "CHNLID": 201,
                "highlight": {
                    "DOCTITLE": [
                        "陕西省人民政府关于韦进泉免职的<em>通知</em>"
                    ],
                    "NF": [
                        "<em>2019</em>"
                    ]
                },
                "DOCTITLE": "陕西省人民政府关于韦进泉免职的通知",
                "DOCPUBURL": "http://www.shaanxi.gov.cn/zfxxgk/fdzdgknr/zcwj/szfwj/szrz/201912/t20191226_1665648.html",
                "branchLevel3": "",
                "branchLevel2": "",
                "aggFiletype": "陕政任字-4",
                "aggSubcat": "人事工作-3-121",
                "fwrq": "2019-12-26T07:40:35.000Z",
                "RECID": 1665648,
                "opertime": "2021-10-23T07:21:23.000Z",
                "SITEID": 11,
                "CHNLDESC": "陕政任字",
                "publishdept": "省政府办公厅",
                "AVAILABLE": "是",
                "show_type": "政策文件库",
                "filetypeLevel3": "陕政任字",
                "SITEDESC": "陕西省人民政府",
                "filetypeLevel2": "省政府文件-2",
                "filetypeLevel1": "按发布机构分类",
                "NF": "2019",
                "SUBCAT": "人事工作",
                "_id": "1665884",
                "level1": "主题分类",
                "level3": "人事工作",
                "aggBranch": "",
                "aggNF": "2019-32",
                "KEYWORDS": "陕西省人民政府;省司法厅;监狱;管理局;省政府",
                "level2": "劳动、人事、监察-15"
            },
            {
                "NFLevel1": "公开年份分类",
                "branchLevel1": "",
                "PUBDATE": "2019-12-26T07:39:30.000Z",
                "type": "主题分类",
                "DOCID": 1665883,
                "DOCCONTENT": "省公安厅：\n省政府2019年12月16日决定，免去王勇的陕西省公安厅副厅级侦察员职务，退休。\n陕西省人民政府\n2019年12月16日",
                "CHNLID": 201,
                "highlight": {
                    "DOCTITLE": [
                        "陕西省人民政府关于王勇免职的<em>通知</em>"
                    ],
                    "NF": [
                        "<em>2019</em>"
                    ]
                },
                "DOCTITLE": "陕西省人民政府关于王勇免职的通知",
                "DOCPUBURL": "http://www.shaanxi.gov.cn/zfxxgk/fdzdgknr/zcwj/szfwj/szrz/201912/t20191226_1665647.html",
                "branchLevel3": "",
                "branchLevel2": "",
                "aggFiletype": "陕政任字-4",
                "aggSubcat": "人事工作-3-121",
                "fwrq": "2019-12-26T07:39:30.000Z",
                "RECID": 1665647,
                "opertime": "2021-10-23T07:21:24.000Z",
                "SITEID": 11,
                "CHNLDESC": "陕政任字",
                "publishdept": "省政府办公厅",
                "AVAILABLE": "是",
                "show_type": "政策文件库",
                "filetypeLevel3": "陕政任字",
                "SITEDESC": "陕西省人民政府",
                "filetypeLevel2": "省政府文件-2",
                "filetypeLevel1": "按发布机构分类",
                "NF": "2019",
                "SUBCAT": "人事工作",
                "_id": "1665883",
                "level1": "主题分类",
                "level3": "人事工作",
                "aggBranch": "",
                "aggNF": "2019-32",
                "KEYWORDS": "陕西省人民政府;侦察员;省公安厅;王勇;退休",
                "level2": "劳动、人事、监察-15"
            },
            {
                "NFLevel1": "公开年份分类",
                "branchLevel1": "按发布机构分类",
                "PUBDATE": "2019-12-20T08:45:33.000Z",
                "type": "主题分类",
                "DOCID": 1829136,
                "DOCCONTENT": "委机关各处室：经12月18日委党组会研究决定：唐宝云同志任健康促进处处长，免去徐胜利同志健康促进处处长、一级调研员职务。中共陕西省卫生健康委党组2019年12月19日",
                "CHNLID": 811,
                "highlight": {
                    "DOCTITLE": [
                        "中共陕西省卫生健康委党组关于唐宝云等同志任免职的<em>通知</em>"
                    ],
                    "NF": [
                        "<em>2019</em>"
                    ]
                },
                "DOCTITLE": "中共陕西省卫生健康委党组关于唐宝云等同志任免职的通知",
                "DOCPUBURL": "http://sxwjw.shaanxi.gov.cn/zfxxgk/fdzdgknr/zcwj/xzgfxwj/201912/t20191220_1828772.html",
                "branchLevel3": "省卫生健康委员会",
                "branchLevel2": "省政府部门文件",
                "aggFiletype": "",
                "aggSubcat": "",
                "fwrq": "2019-12-20T08:45:33.000Z",
                "RECID": 1828772,
                "opertime": "2021-11-02T03:45:15.000Z",
                "SITEID": 17,
                "CHNLDESC": "行政规范性文件",
                "publishdept": "省卫生健康委员会",
                "AVAILABLE": "是",
                "show_type": "政策文件库",
                "filetypeLevel3": "",
                "SITEDESC": "陕西省卫生健康委员会",
                "filetypeLevel2": "",
                "filetypeLevel1": "",
                "NF": "2019",
                "SUBCAT": "其他",
                "_id": "1829136",
                "level1": "主题分类",
                "level3": "",
                "aggBranch": "省卫生健康委员会-19",
                "aggNF": "2019-32",
                "KEYWORDS": "调研员;陕西省;健康;委机关各处室;唐宝云",
                "level2": "其他-22"
            }
        ],
        "total": "686",
        "totalPages": 69,
        "pageSize": 10,
        "pageNumber": 1,
        "searchProperty": null,
        "searchValue": null,
        "orderProperty": "PUBDATE",
        "orderDirection": "desc"
    }
}